[
  {
    "id": "appc-anatomie",
    "type": "CodeSystem",
    "url": "https://termgit.elga.gv.at/CodeSystem/appc-anatomie",
    "version": "1.0.0+20230131",
    "name": "appc-anatomie",
    "oids": [
      "1.2.40.0.34.5.38.4"
    ]
  },
  {
    "id": "elga-lebensmittelallergene-mapping",
    "type": "ConceptMap",
    "url": "https://termgit.elga.gv.at/ConceptMap-elga-conceptmap-lebensmittelallergene",
    "version": "1.0.0+20221027",
    "name": "elga-lebensmittelallergene-mapping"
  },
  {
    "id": "appc-anatomie",
    "type": "ValueSet",
    "url": "https://termgit.elga.gv.at/ValueSet/appc-anatomie",
    "version": "1.0.0+20230131",
    "name": "appc-anatomie",
    "oids": [
      "1.2.40.0.34.10.65"
    ]
  },
  {
    "id": "austrian-terminology-server",
    "type": "ImplementationGuide",
    "url": "https://thomasberger1983.gitlab.io/termgit-dev/ImplementationGuide/austrian-terminology-server",
    "version": "2.2.0+20230307",
    "name": "termgit"
  }
]